^F:\学习\程序\软件工程\扇贝刷题\扇贝刷题\STDAFX.CPP
/c /ZI /nologo /W3 /WX- /sdl /Od /Oy- /D WIN32 /D _WINDOWS /D _DEBUG /D _UNICODE /D UNICODE /D _AFXDLL /Gm /EHsc /RTC1 /MDd /GS /fp:precise /Zc:wchar_t /Zc:forScope /Yc"stdafx.h" /Fp"DEBUG\扇贝刷题.PCH" /Fo"DEBUG\\" /Fd"DEBUG\VC110.PDB" /Gd /TP /analyze- F:\学习\程序\软件工程\扇贝刷题\扇贝刷题\STDAFX.CPP
^F:\学习\程序\软件工程\扇贝刷题\扇贝刷题\QUESTION.CPP
/c /ZI /nologo /W3 /WX- /sdl /Od /Oy- /D WIN32 /D _WINDOWS /D _DEBUG /D _UNICODE /D UNICODE /D _AFXDLL /Gm /EHsc /RTC1 /MDd /GS /fp:precise /Zc:wchar_t /Zc:forScope /Yu"stdafx.h" /Fp"DEBUG\扇贝刷题.PCH" /Fo"DEBUG\\" /Fd"DEBUG\VC110.PDB" /Gd /TP /analyze- F:\学习\程序\软件工程\扇贝刷题\扇贝刷题\QUESTION.CPP
^F:\学习\程序\软件工程\扇贝刷题\扇贝刷题\RANDOMPROBABILITY.CPP
/c /ZI /nologo /W3 /WX- /sdl /Od /Oy- /D WIN32 /D _WINDOWS /D _DEBUG /D _UNICODE /D UNICODE /D _AFXDLL /Gm /EHsc /RTC1 /MDd /GS /fp:precise /Zc:wchar_t /Zc:forScope /Yu"stdafx.h" /Fp"DEBUG\扇贝刷题.PCH" /Fo"DEBUG\\" /Fd"DEBUG\VC110.PDB" /Gd /TP /analyze- F:\学习\程序\软件工程\扇贝刷题\扇贝刷题\RANDOMPROBABILITY.CPP
^F:\学习\程序\软件工程\扇贝刷题\扇贝刷题\扇贝刷题.CPP
/c /ZI /nologo /W3 /WX- /sdl /Od /Oy- /D WIN32 /D _WINDOWS /D _DEBUG /D _UNICODE /D UNICODE /D _AFXDLL /Gm /EHsc /RTC1 /MDd /GS /fp:precise /Zc:wchar_t /Zc:forScope /Yu"stdafx.h" /Fp"DEBUG\扇贝刷题.PCH" /Fo"DEBUG\\" /Fd"DEBUG\VC110.PDB" /Gd /TP /analyze- F:\学习\程序\软件工程\扇贝刷题\扇贝刷题\扇贝刷题.CPP
^F:\学习\程序\软件工程\扇贝刷题\扇贝刷题\扇贝刷题DLG.CPP
/c /ZI /nologo /W3 /WX- /sdl /Od /Oy- /D WIN32 /D _WINDOWS /D _DEBUG /D _UNICODE /D UNICODE /D _AFXDLL /Gm /EHsc /RTC1 /MDd /GS /fp:precise /Zc:wchar_t /Zc:forScope /Yu"stdafx.h" /Fp"DEBUG\扇贝刷题.PCH" /Fo"DEBUG\\" /Fd"DEBUG\VC110.PDB" /Gd /TP /analyze- F:\学习\程序\软件工程\扇贝刷题\扇贝刷题\扇贝刷题DLG.CPP
