^F:\学习\程序\软件工程\扇贝刷题\扇贝刷题\STDAFX.CPP
E:\VISUALSTUDIO2012\VC\BIN\2052\CLUI.DLL
C:\WINDOWS\GLOBALIZATION\SORTING\SORTDEFAULT.NLS
C:\WINDOWS\SYSTEM32\TZRES.DLL
F:\学习\程序\软件工程\扇贝刷题\扇贝刷题\STDAFX.H
F:\学习\程序\软件工程\扇贝刷题\扇贝刷题\TARGETVER.H
C:\PROGRAM FILES (X86)\WINDOWS KITS\8.0\INCLUDE\SHARED\SDKDDKVER.H
E:\VISUALSTUDIO2012\VC\ATLMFC\INCLUDE\AFXWIN.H
E:\VISUALSTUDIO2012\VC\ATLMFC\INCLUDE\AFX.H
E:\VISUALSTUDIO2012\VC\INCLUDE\NEW.H
E:\VISUALSTUDIO2012\VC\INCLUDE\CRTDEFS.H
E:\VISUALSTUDIO2012\VC\INCLUDE\SAL.H
E:\VISUALSTUDIO2012\VC\INCLUDE\CONCURRENCYSAL.H
E:\VISUALSTUDIO2012\VC\INCLUDE\VADEFS.H
E:\VISUALSTUDIO2012\VC\ATLMFC\INCLUDE\AFXVER_.H
E:\VISUALSTUDIO2012\VC\ATLMFC\INCLUDE\AFXV_W32.H
C:\PROGRAM FILES (X86)\WINDOWS KITS\8.0\INCLUDE\UM\WINSDKVER.H
C:\PROGRAM FILES (X86)\WINDOWS KITS\8.0\INCLUDE\SHARED\WINAPIFAMILY.H
C:\PROGRAM FILES (X86)\WINDOWS KITS\8.0\INCLUDE\UM\WINDOWS.H
E:\VISUALSTUDIO2012\VC\INCLUDE\EXCPT.H
E:\VISUALSTUDIO2012\VC\INCLUDE\STDARG.H
C:\PROGRAM FILES (X86)\WINDOWS KITS\8.0\INCLUDE\SHARED\WINDEF.H
C:\PROGRAM FILES (X86)\WINDOWS KITS\8.0\INCLUDE\SHARED\MINWINDEF.H
C:\PROGRAM FILES (X86)\WINDOWS KITS\8.0\INCLUDE\SHARED\SPECSTRINGS.H
C:\PROGRAM FILES (X86)\WINDOWS KITS\8.0\INCLUDE\SHARED\SPECSTRINGS_STRICT.H
C:\PROGRAM FILES (X86)\WINDOWS KITS\8.0\INCLUDE\SHARED\SPECSTRINGS_UNDEF.H
C:\PROGRAM FILES (X86)\WINDOWS KITS\8.0\INCLUDE\SHARED\DRIVERSPECS.H
C:\PROGRAM FILES (X86)\WINDOWS KITS\8.0\INCLUDE\SHARED\SDV_DRIVERSPECS.H
C:\PROGRAM FILES (X86)\WINDOWS KITS\8.0\INCLUDE\UM\WINNT.H
E:\VISUALSTUDIO2012\VC\INCLUDE\CTYPE.H
C:\PROGRAM FILES (X86)\WINDOWS KITS\8.0\INCLUDE\SHARED\KERNELSPECS.H
C:\PROGRAM FILES (X86)\WINDOWS KITS\8.0\INCLUDE\SHARED\BASETSD.H
C:\PROGRAM FILES (X86)\WINDOWS KITS\8.0\INCLUDE\SHARED\GUIDDEF.H
E:\VISUALSTUDIO2012\VC\INCLUDE\STRING.H
C:\PROGRAM FILES (X86)\WINDOWS KITS\8.0\INCLUDE\SHARED\PSHPACK4.H
C:\PROGRAM FILES (X86)\WINDOWS KITS\8.0\INCLUDE\SHARED\POPPACK.H
C:\PROGRAM FILES (X86)\WINDOWS KITS\8.0\INCLUDE\SHARED\PSHPACK2.H
C:\PROGRAM FILES (X86)\WINDOWS KITS\8.0\INCLUDE\SHARED\PSHPACK8.H
C:\PROGRAM FILES (X86)\WINDOWS KITS\8.0\INCLUDE\SHARED\APISET.H
C:\PROGRAM FILES (X86)\WINDOWS KITS\8.0\INCLUDE\SHARED\KTMTYPES.H
C:\PROGRAM FILES (X86)\WINDOWS KITS\8.0\INCLUDE\UM\WINBASE.H
C:\PROGRAM FILES (X86)\WINDOWS KITS\8.0\INCLUDE\SHARED\APISETCCONV.H
C:\PROGRAM FILES (X86)\WINDOWS KITS\8.0\INCLUDE\UM\MINWINBASE.H
C:\PROGRAM FILES (X86)\WINDOWS KITS\8.0\INCLUDE\UM\PROCESSENV.H
C:\PROGRAM FILES (X86)\WINDOWS KITS\8.0\INCLUDE\UM\FILEAPI.H
C:\PROGRAM FILES (X86)\WINDOWS KITS\8.0\INCLUDE\UM\DEBUGAPI.H
C:\PROGRAM FILES (X86)\WINDOWS KITS\8.0\INCLUDE\UM\UTILAPISET.H
C:\PROGRAM FILES (X86)\WINDOWS KITS\8.0\INCLUDE\UM\HANDLEAPI.H
C:\PROGRAM FILES (X86)\WINDOWS KITS\8.0\INCLUDE\UM\ERRHANDLINGAPI.H
C:\PROGRAM FILES (X86)\WINDOWS KITS\8.0\INCLUDE\UM\FIBERSAPI.H
C:\PROGRAM FILES (X86)\WINDOWS KITS\8.0\INCLUDE\UM\NAMEDPIPEAPI.H
C:\PROGRAM FILES (X86)\WINDOWS KITS\8.0\INCLUDE\UM\PROFILEAPI.H
C:\PROGRAM FILES (X86)\WINDOWS KITS\8.0\INCLUDE\UM\HEAPAPI.H
C:\PROGRAM FILES (X86)\WINDOWS KITS\8.0\INCLUDE\UM\IOAPISET.H
C:\PROGRAM FILES (X86)\WINDOWS KITS\8.0\INCLUDE\UM\SYNCHAPI.H
C:\PROGRAM FILES (X86)\WINDOWS KITS\8.0\INCLUDE\UM\INTERLOCKEDAPI.H
C:\PROGRAM FILES (X86)\WINDOWS KITS\8.0\INCLUDE\UM\PROCESSTHREADSAPI.H
C:\PROGRAM FILES (X86)\WINDOWS KITS\8.0\INCLUDE\UM\SYSINFOAPI.H
C:\PROGRAM FILES (X86)\WINDOWS KITS\8.0\INCLUDE\UM\MEMORYAPI.H
C:\PROGRAM FILES (X86)\WINDOWS KITS\8.0\INCLUDE\UM\THREADPOOLLEGACYAPISET.H
C:\PROGRAM FILES (X86)\WINDOWS KITS\8.0\INCLUDE\UM\THREADPOOLAPISET.H
C:\PROGRAM FILES (X86)\WINDOWS KITS\8.0\INCLUDE\UM\BEMAPISET.H
C:\PROGRAM FILES (X86)\WINDOWS KITS\8.0\INCLUDE\UM\JOBAPI.H
C:\PROGRAM FILES (X86)\WINDOWS KITS\8.0\INCLUDE\UM\WOW64APISET.H
C:\PROGRAM FILES (X86)\WINDOWS KITS\8.0\INCLUDE\UM\LIBLOADERAPI.H
C:\PROGRAM FILES (X86)\WINDOWS KITS\8.0\INCLUDE\UM\SECURITYBASEAPI.H
C:\PROGRAM FILES (X86)\WINDOWS KITS\8.0\INCLUDE\UM\NAMESPACEAPI.H
C:\PROGRAM FILES (X86)\WINDOWS KITS\8.0\INCLUDE\UM\SYSTEMTOPOLOGYAPI.H
C:\PROGRAM FILES (X86)\WINDOWS KITS\8.0\INCLUDE\UM\PROCESSTOPOLOGYAPI.H
C:\PROGRAM FILES (X86)\WINDOWS KITS\8.0\INCLUDE\UM\SECURITYAPPCONTAINER.H
C:\PROGRAM FILES (X86)\WINDOWS KITS\8.0\INCLUDE\UM\REALTIMEAPISET.H
C:\PROGRAM FILES (X86)\WINDOWS KITS\8.0\INCLUDE\SHARED\WINERROR.H
C:\PROGRAM FILES (X86)\WINDOWS KITS\8.0\INCLUDE\UM\TIMEZONEAPI.H
C:\PROGRAM FILES (X86)\WINDOWS KITS\8.0\INCLUDE\UM\WINGDI.H
C:\PROGRAM FILES (X86)\WINDOWS KITS\8.0\INCLUDE\SHARED\PSHPACK1.H
C:\PROGRAM FILES (X86)\WINDOWS KITS\8.0\INCLUDE\UM\WINUSER.H
C:\PROGRAM FILES (X86)\WINDOWS KITS\8.0\INCLUDE\SHARED\TVOUT.H
C:\PROGRAM FILES (X86)\WINDOWS KITS\8.0\INCLUDE\UM\WINNLS.H
C:\PROGRAM FILES (X86)\WINDOWS KITS\8.0\INCLUDE\UM\DATETIMEAPI.H
C:\PROGRAM FILES (X86)\WINDOWS KITS\8.0\INCLUDE\UM\STRINGAPISET.H
C:\PROGRAM FILES (X86)\WINDOWS KITS\8.0\INCLUDE\UM\WINCON.H
C:\PROGRAM FILES (X86)\WINDOWS KITS\8.0\INCLUDE\UM\CONSOLEAPI.H
C:\PROGRAM FILES (X86)\WINDOWS KITS\8.0\INCLUDE\UM\WINVER.H
C:\PROGRAM FILES (X86)\WINDOWS KITS\8.0\INCLUDE\UM\VERRSRC.H
C:\PROGRAM FILES (X86)\WINDOWS KITS\8.0\INCLUDE\UM\WINREG.H
C:\PROGRAM FILES (X86)\WINDOWS KITS\8.0\INCLUDE\UM\REASON.H
C:\PROGRAM FILES (X86)\WINDOWS KITS\8.0\INCLUDE\UM\WINNETWK.H
C:\PROGRAM FILES (X86)\WINDOWS KITS\8.0\INCLUDE\SHARED\WNNC.H
C:\PROGRAM FILES (X86)\WINDOWS KITS\8.0\INCLUDE\SHARED\STRALIGN.H
C:\PROGRAM FILES (X86)\WINDOWS KITS\8.0\INCLUDE\UM\ZMOUSE.H
C:\PROGRAM FILES (X86)\WINDOWS KITS\8.0\INCLUDE\UM\COMMCTRL.H
C:\PROGRAM FILES (X86)\WINDOWS KITS\8.0\INCLUDE\UM\PRSHT.H
E:\VISUALSTUDIO2012\VC\INCLUDE\TCHAR.H
E:\VISUALSTUDIO2012\VC\INCLUDE\WCHAR.H
E:\VISUALSTUDIO2012\VC\INCLUDE\SWPRINTF.INL
E:\VISUALSTUDIO2012\VC\INCLUDE\WTIME.INL
E:\VISUALSTUDIO2012\VC\ATLMFC\INCLUDE\AFXV_DLL.H
E:\VISUALSTUDIO2012\VC\INCLUDE\STDIO.H
E:\VISUALSTUDIO2012\VC\INCLUDE\STDLIB.H
E:\VISUALSTUDIO2012\VC\INCLUDE\LIMITS.H
E:\VISUALSTUDIO2012\VC\INCLUDE\TIME.H
E:\VISUALSTUDIO2012\VC\INCLUDE\TIME.INL
E:\VISUALSTUDIO2012\VC\INCLUDE\STDDEF.H
E:\VISUALSTUDIO2012\VC\INCLUDE\ERRNO.H
E:\VISUALSTUDIO2012\VC\INCLUDE\MALLOC.H
E:\VISUALSTUDIO2012\VC\INCLUDE\CRTDBG.H
E:\VISUALSTUDIO2012\VC\ATLMFC\INCLUDE\ATLTRACE.H
E:\VISUALSTUDIO2012\VC\ATLMFC\INCLUDE\ATLDEF.H
E:\VISUALSTUDIO2012\VC\ATLMFC\INCLUDE\ATLRC.H
E:\VISUALSTUDIO2012\VC\ATLMFC\INCLUDE\ATLCONV.H
E:\VISUALSTUDIO2012\VC\ATLMFC\INCLUDE\ATLALLOC.H
C:\PROGRAM FILES (X86)\WINDOWS KITS\8.0\INCLUDE\UM\OLE2.H
C:\PROGRAM FILES (X86)\WINDOWS KITS\8.0\INCLUDE\UM\OBJBASE.H
C:\PROGRAM FILES (X86)\WINDOWS KITS\8.0\INCLUDE\SHARED\RPC.H
C:\PROGRAM FILES (X86)\WINDOWS KITS\8.0\INCLUDE\SHARED\RPCDCE.H
C:\PROGRAM FILES (X86)\WINDOWS KITS\8.0\INCLUDE\SHARED\RPCDCEP.H
C:\PROGRAM FILES (X86)\WINDOWS KITS\8.0\INCLUDE\UM\RPCNSI.H
C:\PROGRAM FILES (X86)\WINDOWS KITS\8.0\INCLUDE\SHARED\RPCNTERR.H
C:\PROGRAM FILES (X86)\WINDOWS KITS\8.0\INCLUDE\SHARED\RPCASYNC.H
C:\PROGRAM FILES (X86)\WINDOWS KITS\8.0\INCLUDE\SHARED\RPCNDR.H
C:\PROGRAM FILES (X86)\WINDOWS KITS\8.0\INCLUDE\UM\RPCNSIP.H
C:\PROGRAM FILES (X86)\WINDOWS KITS\8.0\INCLUDE\SHARED\RPCSAL.H
C:\PROGRAM FILES (X86)\WINDOWS KITS\8.0\INCLUDE\UM\COMBASEAPI.H
C:\PROGRAM FILES (X86)\WINDOWS KITS\8.0\INCLUDE\SHARED\WTYPESBASE.H
C:\PROGRAM FILES (X86)\WINDOWS KITS\8.0\INCLUDE\UM\UNKNWNBASE.H
C:\PROGRAM FILES (X86)\WINDOWS KITS\8.0\INCLUDE\UM\OBJIDLBASE.H
C:\PROGRAM FILES (X86)\WINDOWS KITS\8.0\INCLUDE\UM\CGUID.H
C:\PROGRAM FILES (X86)\WINDOWS KITS\8.0\INCLUDE\UM\OBJIDL.H
C:\PROGRAM FILES (X86)\WINDOWS KITS\8.0\INCLUDE\UM\UNKNWN.H
C:\PROGRAM FILES (X86)\WINDOWS KITS\8.0\INCLUDE\SHARED\WTYPES.H
C:\PROGRAM FILES (X86)\WINDOWS KITS\8.0\INCLUDE\UM\URLMON.H
C:\PROGRAM FILES (X86)\WINDOWS KITS\8.0\INCLUDE\UM\OLEIDL.H
C:\PROGRAM FILES (X86)\WINDOWS KITS\8.0\INCLUDE\UM\SERVPROV.H
C:\PROGRAM FILES (X86)\WINDOWS KITS\8.0\INCLUDE\UM\MSXML.H
C:\PROGRAM FILES (X86)\WINDOWS KITS\8.0\INCLUDE\UM\OAIDL.H
C:\PROGRAM FILES (X86)\WINDOWS KITS\8.0\INCLUDE\UM\PROPIDL.H
C:\PROGRAM FILES (X86)\WINDOWS KITS\8.0\INCLUDE\UM\OLEAUTO.H
E:\VISUALSTUDIO2012\VC\ATLMFC\INCLUDE\ATLDEBUGAPI.H
E:\VISUALSTUDIO2012\VC\ATLMFC\INCLUDE\AFXSTR.H
E:\VISUALSTUDIO2012\VC\INCLUDE\MBSTRING.H
E:\VISUALSTUDIO2012\VC\ATLMFC\INCLUDE\ATLCORE.H
E:\VISUALSTUDIO2012\VC\ATLMFC\INCLUDE\ATLCHECKED.H
E:\VISUALSTUDIO2012\VC\ATLMFC\INCLUDE\ATLEXCEPT.H
E:\VISUALSTUDIO2012\VC\ATLMFC\INCLUDE\ATLSIMPCOLL.H
E:\VISUALSTUDIO2012\VC\ATLMFC\INCLUDE\CSTRINGT.H
E:\VISUALSTUDIO2012\VC\ATLMFC\INCLUDE\ATLSIMPSTR.H
E:\VISUALSTUDIO2012\VC\ATLMFC\INCLUDE\ATLMEM.H
E:\VISUALSTUDIO2012\VC\ATLMFC\INCLUDE\ATLCOMMEM.H
E:\VISUALSTUDIO2012\VC\ATLMFC\INCLUDE\ATLCOMCLI.H
C:\PROGRAM FILES (X86)\WINDOWS KITS\8.0\INCLUDE\UM\OLECTL.H
C:\PROGRAM FILES (X86)\WINDOWS KITS\8.0\INCLUDE\UM\OCIDL.H
E:\VISUALSTUDIO2012\VC\ATLMFC\INCLUDE\CSTRINGT.INL
E:\VISUALSTUDIO2012\VC\ATLMFC\INCLUDE\ATLTRANSACTIONMANAGER.H
C:\PROGRAM FILES (X86)\WINDOWS KITS\8.0\INCLUDE\UM\KTMW32.H
E:\VISUALSTUDIO2012\VC\ATLMFC\INCLUDE\ATLTIME.H
C:\PROGRAM FILES (X86)\WINDOWS KITS\8.0\INCLUDE\UM\OLEDB.H
C:\PROGRAM FILES (X86)\WINDOWS KITS\8.0\INCLUDE\UM\TRANSACT.H
C:\PROGRAM FILES (X86)\WINDOWS KITS\8.0\INCLUDE\UM\ACCCTRL.H
E:\VISUALSTUDIO2012\VC\ATLMFC\INCLUDE\AFXCOLL.H
E:\VISUALSTUDIO2012\VC\ATLMFC\INCLUDE\AFXSTAT_.H
E:\VISUALSTUDIO2012\VC\ATLMFC\INCLUDE\ATLTYPES.H
E:\VISUALSTUDIO2012\VC\ATLMFC\INCLUDE\AFXTLS_.H
E:\VISUALSTUDIO2012\VC\ATLMFC\INCLUDE\AFX.INL
C:\PROGRAM FILES (X86)\WINDOWS KITS\8.0\INCLUDE\UM\SHELLAPI.H
E:\VISUALSTUDIO2012\VC\ATLMFC\INCLUDE\AFXRES.H
C:\PROGRAM FILES (X86)\WINDOWS KITS\8.0\INCLUDE\UM\COMMDLG.H
E:\VISUALSTUDIO2012\VC\ATLMFC\INCLUDE\AFXCTRLCONTAINER.H
C:\PROGRAM FILES (X86)\WINDOWS KITS\8.0\INCLUDE\UM\SHOBJIDL.H
C:\PROGRAM FILES (X86)\WINDOWS KITS\8.0\INCLUDE\UM\DOCOBJ.H
C:\PROGRAM FILES (X86)\WINDOWS KITS\8.0\INCLUDE\UM\SHTYPES.H
C:\PROGRAM FILES (X86)\WINDOWS KITS\8.0\INCLUDE\UM\COMCAT.H
C:\PROGRAM FILES (X86)\WINDOWS KITS\8.0\INCLUDE\UM\PROPSYS.H
C:\PROGRAM FILES (X86)\WINDOWS KITS\8.0\INCLUDE\UM\STRUCTUREDQUERYCONDITION.H
C:\PROGRAM FILES (X86)\WINDOWS KITS\8.0\INCLUDE\UM\PROPKEYDEF.H
C:\PROGRAM FILES (X86)\WINDOWS KITS\8.0\INCLUDE\UM\OBJECTARRAY.H
C:\PROGRAM FILES (X86)\WINDOWS KITS\8.0\INCLUDE\UM\SHERRORS.H
C:\PROGRAM FILES (X86)\WINDOWS KITS\8.0\INCLUDE\UM\THUMBCACHE.H
E:\VISUALSTUDIO2012\VC\ATLMFC\INCLUDE\ATLHANDLER.H
C:\PROGRAM FILES (X86)\WINDOWS KITS\8.0\INCLUDE\UM\FILTER.H
E:\VISUALSTUDIO2012\VC\ATLMFC\INCLUDE\ATLSTR.H
E:\VISUALSTUDIO2012\VC\ATLMFC\INCLUDE\ATLBASE.H
C:\PROGRAM FILES (X86)\WINDOWS KITS\8.0\INCLUDE\UM\WINSOCK2.H
C:\PROGRAM FILES (X86)\WINDOWS KITS\8.0\INCLUDE\SHARED\WS2DEF.H
C:\PROGRAM FILES (X86)\WINDOWS KITS\8.0\INCLUDE\SHARED\INADDR.H
C:\PROGRAM FILES (X86)\WINDOWS KITS\8.0\INCLUDE\SHARED\QOS.H
E:\VISUALSTUDIO2012\VC\ATLMFC\INCLUDE\ATLIFACE.H
C:\PROGRAM FILES (X86)\WINDOWS KITS\8.0\INCLUDE\UM\OLEACC.H
E:\VISUALSTUDIO2012\VC\INCLUDE\PROCESS.H
C:\PROGRAM FILES (X86)\WINDOWS KITS\8.0\INCLUDE\UM\SHLWAPI.H
E:\VISUALSTUDIO2012\VC\ATLMFC\INCLUDE\STATREG.H
E:\VISUALSTUDIO2012\VC\ATLMFC\INCLUDE\ATLBASE.INL
C:\PROGRAM FILES (X86)\WINDOWS KITS\8.0\INCLUDE\UM\TPCSHRD.H
C:\PROGRAM FILES (X86)\WINDOWS KITS\8.0\INCLUDE\UM\VSSYM32.H
C:\PROGRAM FILES (X86)\WINDOWS KITS\8.0\INCLUDE\UM\VSSTYLE.H
C:\PROGRAM FILES (X86)\WINDOWS KITS\8.0\INCLUDE\SHARED\WS2IPDEF.H
C:\PROGRAM FILES (X86)\WINDOWS KITS\8.0\INCLUDE\SHARED\IN6ADDR.H
C:\PROGRAM FILES (X86)\WINDOWS KITS\8.0\INCLUDE\UM\WINDNS.H
C:\PROGRAM FILES (X86)\WINDOWS KITS\8.0\INCLUDE\UM\IPHLPAPI.H
C:\PROGRAM FILES (X86)\WINDOWS KITS\8.0\INCLUDE\SHARED\IPRTRMIB.H
C:\PROGRAM FILES (X86)\WINDOWS KITS\8.0\INCLUDE\UM\MPRAPI.H
C:\PROGRAM FILES (X86)\WINDOWS KITS\8.0\INCLUDE\SHARED\LMCONS.H
C:\PROGRAM FILES (X86)\WINDOWS KITS\8.0\INCLUDE\UM\RAS.H
C:\PROGRAM FILES (X86)\WINDOWS KITS\8.0\INCLUDE\UM\WINCRYPT.H
C:\PROGRAM FILES (X86)\WINDOWS KITS\8.0\INCLUDE\SHARED\BCRYPT.H
C:\PROGRAM FILES (X86)\WINDOWS KITS\8.0\INCLUDE\UM\NCRYPT.H
C:\PROGRAM FILES (X86)\WINDOWS KITS\8.0\INCLUDE\UM\DPAPI.H
C:\PROGRAM FILES (X86)\WINDOWS KITS\8.0\INCLUDE\SHARED\IPIFCONS.H
C:\PROGRAM FILES (X86)\WINDOWS KITS\8.0\INCLUDE\SHARED\IPMIB.H
C:\PROGRAM FILES (X86)\WINDOWS KITS\8.0\INCLUDE\SHARED\IFMIB.H
C:\PROGRAM FILES (X86)\WINDOWS KITS\8.0\INCLUDE\SHARED\IFDEF.H
C:\PROGRAM FILES (X86)\WINDOWS KITS\8.0\INCLUDE\SHARED\NLDEF.H
C:\PROGRAM FILES (X86)\WINDOWS KITS\8.0\INCLUDE\SHARED\TCPMIB.H
C:\PROGRAM FILES (X86)\WINDOWS KITS\8.0\INCLUDE\SHARED\UDPMIB.H
C:\PROGRAM FILES (X86)\WINDOWS KITS\8.0\INCLUDE\UM\IPEXPORT.H
C:\PROGRAM FILES (X86)\WINDOWS KITS\8.0\INCLUDE\SHARED\PACKON.H
C:\PROGRAM FILES (X86)\WINDOWS KITS\8.0\INCLUDE\SHARED\PACKOFF.H
C:\PROGRAM FILES (X86)\WINDOWS KITS\8.0\INCLUDE\UM\IPTYPES.H
C:\PROGRAM FILES (X86)\WINDOWS KITS\8.0\INCLUDE\SHARED\TCPESTATS.H
C:\PROGRAM FILES (X86)\WINDOWS KITS\8.0\INCLUDE\SHARED\NETIOAPI.H
C:\PROGRAM FILES (X86)\WINDOWS KITS\8.0\INCLUDE\SHARED\NTDDNDIS.H
C:\PROGRAM FILES (X86)\WINDOWS KITS\8.0\INCLUDE\SHARED\DEVPKEY.H
C:\PROGRAM FILES (X86)\WINDOWS KITS\8.0\INCLUDE\SHARED\DEVPROPDEF.H
C:\PROGRAM FILES (X86)\WINDOWS KITS\8.0\INCLUDE\SHARED\PCIPROP.H
C:\PROGRAM FILES (X86)\WINDOWS KITS\8.0\INCLUDE\SHARED\WINDOT11.H
C:\PROGRAM FILES (X86)\WINDOWS KITS\8.0\INCLUDE\SHARED\WLANTYPES.H
C:\PROGRAM FILES (X86)\WINDOWS KITS\8.0\INCLUDE\UM\DWMAPI.H
C:\PROGRAM FILES (X86)\WINDOWS KITS\8.0\INCLUDE\UM\UXTHEME.H
C:\PROGRAM FILES (X86)\WINDOWS KITS\8.0\INCLUDE\UM\HTMLHELP.H
C:\PROGRAM FILES (X86)\WINDOWS KITS\8.0\INCLUDE\UM\UIANIMATION.H
C:\PROGRAM FILES (X86)\WINDOWS KITS\8.0\INCLUDE\UM\DCOMPANIMATION.H
E:\VISUALSTUDIO2012\VC\ATLMFC\INCLUDE\AFXANIMATIONCONTROLLER.H
E:\VISUALSTUDIO2012\VC\ATLMFC\INCLUDE\AFXANIMATIONHELPER.H
E:\VISUALSTUDIO2012\VC\ATLMFC\INCLUDE\AFXTEMPL.H
E:\VISUALSTUDIO2012\VC\ATLMFC\INCLUDE\AFXPLEX_.H
E:\VISUALSTUDIO2012\VC\ATLMFC\INCLUDE\AFXMSG_.H
E:\VISUALSTUDIO2012\VC\ATLMFC\INCLUDE\AFXDD_.H
E:\VISUALSTUDIO2012\VC\ATLMFC\INCLUDE\AFXRENDERTARGET.H
C:\PROGRAM FILES (X86)\WINDOWS KITS\8.0\INCLUDE\UM\D2D1.H
C:\PROGRAM FILES (X86)\WINDOWS KITS\8.0\INCLUDE\UM\DCOMMON.H
C:\PROGRAM FILES (X86)\WINDOWS KITS\8.0\INCLUDE\UM\DXGIFORMAT.H
C:\PROGRAM FILES (X86)\WINDOWS KITS\8.0\INCLUDE\UM\D2DERR.H
C:\PROGRAM FILES (X86)\WINDOWS KITS\8.0\INCLUDE\UM\D2DBASETYPES.H
C:\PROGRAM FILES (X86)\WINDOWS KITS\8.0\INCLUDE\UM\D3D10_1.H
C:\PROGRAM FILES (X86)\WINDOWS KITS\8.0\INCLUDE\UM\D3D10.H
C:\PROGRAM FILES (X86)\WINDOWS KITS\8.0\INCLUDE\UM\DXGI.H
C:\PROGRAM FILES (X86)\WINDOWS KITS\8.0\INCLUDE\SHARED\DXGITYPE.H
C:\PROGRAM FILES (X86)\WINDOWS KITS\8.0\INCLUDE\UM\D3DCOMMON.H
C:\PROGRAM FILES (X86)\WINDOWS KITS\8.0\INCLUDE\UM\D3D10SDKLAYERS.H
C:\PROGRAM FILES (X86)\WINDOWS KITS\8.0\INCLUDE\UM\D3D10MISC.H
C:\PROGRAM FILES (X86)\WINDOWS KITS\8.0\INCLUDE\UM\D3D10SHADER.H
C:\PROGRAM FILES (X86)\WINDOWS KITS\8.0\INCLUDE\UM\D3D10EFFECT.H
C:\PROGRAM FILES (X86)\WINDOWS KITS\8.0\INCLUDE\UM\D3D10_1SHADER.H
C:\PROGRAM FILES (X86)\WINDOWS KITS\8.0\INCLUDE\UM\D2D1HELPER.H
C:\PROGRAM FILES (X86)\WINDOWS KITS\8.0\INCLUDE\UM\DWRITE.H
C:\PROGRAM FILES (X86)\WINDOWS KITS\8.0\INCLUDE\UM\WINCODEC.H
C:\PROGRAM FILES (X86)\WINDOWS KITS\8.0\INCLUDE\SHARED\INTSAFE.H
E:\VISUALSTUDIO2012\VC\ATLMFC\INCLUDE\AFXDLL_.H
E:\VISUALSTUDIO2012\VC\ATLMFC\INCLUDE\AFXWIN4.INL
E:\VISUALSTUDIO2012\VC\ATLMFC\INCLUDE\AFXEXT.H
E:\VISUALSTUDIO2012\VC\ATLMFC\INCLUDE\AFXDLGS.H
C:\PROGRAM FILES (X86)\WINDOWS KITS\8.0\INCLUDE\UM\RICHEDIT.H
E:\VISUALSTUDIO2012\VC\ATLMFC\INCLUDE\AFXDTCTL.H
E:\VISUALSTUDIO2012\VC\ATLMFC\INCLUDE\AFXDISP.H
C:\PROGRAM FILES (X86)\WINDOWS KITS\8.0\INCLUDE\UM\SHLOBJ.H
C:\PROGRAM FILES (X86)\WINDOWS KITS\8.0\INCLUDE\UM\SHLGUID.H
C:\PROGRAM FILES (X86)\WINDOWS KITS\8.0\INCLUDE\UM\ISGUIDS.H
C:\PROGRAM FILES (X86)\WINDOWS KITS\8.0\INCLUDE\UM\EXDISP.H
C:\PROGRAM FILES (X86)\WINDOWS KITS\8.0\INCLUDE\UM\SHLDISP.H
C:\PROGRAM FILES (X86)\WINDOWS KITS\8.0\INCLUDE\UM\KNOWNFOLDERS.H
E:\VISUALSTUDIO2012\VC\ATLMFC\INCLUDE\ATLCOMTIME.H
E:\VISUALSTUDIO2012\VC\ATLMFC\INCLUDE\AFXOCC.H
E:\VISUALSTUDIO2012\VC\ATLMFC\INCLUDE\OLEBIND.H
E:\VISUALSTUDIO2012\VC\ATLMFC\INCLUDE\OCDBID.H
E:\VISUALSTUDIO2012\VC\ATLMFC\INCLUDE\OCDB.H
E:\VISUALSTUDIO2012\VC\ATLMFC\INCLUDE\AFXCMN.H
E:\VISUALSTUDIO2012\VC\ATLMFC\INCLUDE\AFXCMN3.INL
E:\VISUALSTUDIO2012\VC\ATLMFC\INCLUDE\AFXCONTROLBARS.H
E:\VISUALSTUDIO2012\VC\ATLMFC\INCLUDE\AFXCONTROLBARUTIL.H
E:\VISUALSTUDIO2012\VC\ATLMFC\INCLUDE\AFXUSERTOOLSMANAGER.H
E:\VISUALSTUDIO2012\VC\ATLMFC\INCLUDE\AFXUSERTOOL.H
E:\VISUALSTUDIO2012\VC\ATLMFC\INCLUDE\AFXTOOLBAR.H
E:\VISUALSTUDIO2012\VC\ATLMFC\INCLUDE\AFXTOOLBARDROPTARGET.H
E:\VISUALSTUDIO2012\VC\ATLMFC\INCLUDE\AFXOLE.H
E:\VISUALSTUDIO2012\VC\ATLMFC\INCLUDE\AFXCOM_.H
E:\VISUALSTUDIO2012\VC\ATLMFC\INCLUDE\AFXTOOLBARDROPSOURCE.H
E:\VISUALSTUDIO2012\VC\ATLMFC\INCLUDE\AFXTOOLBARIMAGES.H
E:\VISUALSTUDIO2012\VC\ATLMFC\INCLUDE\AFXMT.H
E:\VISUALSTUDIO2012\VC\ATLMFC\INCLUDE\ATLIMAGE.H
C:\PROGRAM FILES (X86)\WINDOWS KITS\8.0\INCLUDE\UM\GDIPLUS.H
C:\PROGRAM FILES (X86)\WINDOWS KITS\8.0\INCLUDE\UM\GDIPLUSMEM.H
C:\PROGRAM FILES (X86)\WINDOWS KITS\8.0\INCLUDE\UM\GDIPLUSBASE.H
C:\PROGRAM FILES (X86)\WINDOWS KITS\8.0\INCLUDE\UM\GDIPLUSENUMS.H
C:\PROGRAM FILES (X86)\WINDOWS KITS\8.0\INCLUDE\UM\GDIPLUSTYPES.H
C:\PROGRAM FILES (X86)\WINDOWS KITS\8.0\INCLUDE\UM\GDIPLUSINIT.H
C:\PROGRAM FILES (X86)\WINDOWS KITS\8.0\INCLUDE\UM\GDIPLUSPIXELFORMATS.H
C:\PROGRAM FILES (X86)\WINDOWS KITS\8.0\INCLUDE\UM\GDIPLUSCOLOR.H
C:\PROGRAM FILES (X86)\WINDOWS KITS\8.0\INCLUDE\UM\GDIPLUSMETAHEADER.H
C:\PROGRAM FILES (X86)\WINDOWS KITS\8.0\INCLUDE\UM\GDIPLUSIMAGING.H
C:\PROGRAM FILES (X86)\WINDOWS KITS\8.0\INCLUDE\UM\GDIPLUSCOLORMATRIX.H
C:\PROGRAM FILES (X86)\WINDOWS KITS\8.0\INCLUDE\UM\GDIPLUSGPSTUBS.H
C:\PROGRAM FILES (X86)\WINDOWS KITS\8.0\INCLUDE\UM\GDIPLUSHEADERS.H
C:\PROGRAM FILES (X86)\WINDOWS KITS\8.0\INCLUDE\UM\GDIPLUSFLAT.H
C:\PROGRAM FILES (X86)\WINDOWS KITS\8.0\INCLUDE\UM\GDIPLUSIMAGEATTRIBUTES.H
C:\PROGRAM FILES (X86)\WINDOWS KITS\8.0\INCLUDE\UM\GDIPLUSMATRIX.H
C:\PROGRAM FILES (X86)\WINDOWS KITS\8.0\INCLUDE\UM\GDIPLUSBRUSH.H
C:\PROGRAM FILES (X86)\WINDOWS KITS\8.0\INCLUDE\UM\GDIPLUSPEN.H
C:\PROGRAM FILES (X86)\WINDOWS KITS\8.0\INCLUDE\UM\GDIPLUSSTRINGFORMAT.H
C:\PROGRAM FILES (X86)\WINDOWS KITS\8.0\INCLUDE\UM\GDIPLUSPATH.H
C:\PROGRAM FILES (X86)\WINDOWS KITS\8.0\INCLUDE\UM\GDIPLUSLINECAPS.H
C:\PROGRAM FILES (X86)\WINDOWS KITS\8.0\INCLUDE\UM\GDIPLUSGRAPHICS.H
C:\PROGRAM FILES (X86)\WINDOWS KITS\8.0\INCLUDE\UM\GDIPLUSMETAFILE.H
C:\PROGRAM FILES (X86)\WINDOWS KITS\8.0\INCLUDE\UM\GDIPLUSCACHEDBITMAP.H
C:\PROGRAM FILES (X86)\WINDOWS KITS\8.0\INCLUDE\UM\GDIPLUSREGION.H
C:\PROGRAM FILES (X86)\WINDOWS KITS\8.0\INCLUDE\UM\GDIPLUSFONTCOLLECTION.H
C:\PROGRAM FILES (X86)\WINDOWS KITS\8.0\INCLUDE\UM\GDIPLUSFONTFAMILY.H
C:\PROGRAM FILES (X86)\WINDOWS KITS\8.0\INCLUDE\UM\GDIPLUSFONT.H
C:\PROGRAM FILES (X86)\WINDOWS KITS\8.0\INCLUDE\UM\GDIPLUSBITMAP.H
C:\PROGRAM FILES (X86)\WINDOWS KITS\8.0\INCLUDE\UM\GDIPLUSIMAGECODEC.H
E:\VISUALSTUDIO2012\VC\ATLMFC\INCLUDE\AFXTOOLBARBUTTON.H
E:\VISUALSTUDIO2012\VC\ATLMFC\INCLUDE\AFXCONTROLBARIMPL.H
E:\VISUALSTUDIO2012\VC\ATLMFC\INCLUDE\AFXCMDUSAGECOUNT.H
E:\VISUALSTUDIO2012\VC\ATLMFC\INCLUDE\AFXCOMMANDMANAGER.H
E:\VISUALSTUDIO2012\VC\ATLMFC\INCLUDE\AFXVISUALMANAGER.H
E:\VISUALSTUDIO2012\VC\ATLMFC\INCLUDE\AFXGLOBALS.H
E:\VISUALSTUDIO2012\VC\ATLMFC\INCLUDE\AFXACCESSIBILITY.H
E:\VISUALSTUDIO2012\VC\ATLMFC\INCLUDE\AFXBASETOOLBAR.H
E:\VISUALSTUDIO2012\VC\ATLMFC\INCLUDE\AFXPANE.H
E:\VISUALSTUDIO2012\VC\ATLMFC\INCLUDE\AFXBASEPANE.H
E:\VISUALSTUDIO2012\VC\ATLMFC\INCLUDE\AFXRECENTDOCKSITEINFO.H
E:\VISUALSTUDIO2012\VC\ATLMFC\INCLUDE\AFXDRAGFRAMEIMPL.H
E:\VISUALSTUDIO2012\VC\ATLMFC\INCLUDE\AFXSTATUSBAR.H
E:\VISUALSTUDIO2012\VC\ATLMFC\INCLUDE\AFXMENUBAR.H
E:\VISUALSTUDIO2012\VC\ATLMFC\INCLUDE\AFXPANEDIALOG.H
E:\VISUALSTUDIO2012\VC\ATLMFC\INCLUDE\AFXDOCKABLEPANE.H
E:\VISUALSTUDIO2012\VC\ATLMFC\INCLUDE\AFXMENUIMAGES.H
E:\VISUALSTUDIO2012\VC\ATLMFC\INCLUDE\AFXPANECONTAINER.H
E:\VISUALSTUDIO2012\VC\ATLMFC\INCLUDE\AFXCAPTIONBUTTON.H
E:\VISUALSTUDIO2012\VC\ATLMFC\INCLUDE\AFXMULTIPANEFRAMEWND.H
E:\VISUALSTUDIO2012\VC\ATLMFC\INCLUDE\AFXPANEFRAMEWND.H
E:\VISUALSTUDIO2012\VC\ATLMFC\INCLUDE\AFXPANECONTAINERMANAGER.H
E:\VISUALSTUDIO2012\VC\ATLMFC\INCLUDE\AFXPANEDIVIDER.H
E:\VISUALSTUDIO2012\VC\ATLMFC\INCLUDE\AFXOUTLOOKBAR.H
E:\VISUALSTUDIO2012\VC\ATLMFC\INCLUDE\AFXBASETABBEDPANE.H
E:\VISUALSTUDIO2012\VC\ATLMFC\INCLUDE\AFXBASETABCTRL.H
E:\VISUALSTUDIO2012\VC\ATLMFC\INCLUDE\AFXOUTLOOKBARTABCTRL.H
E:\VISUALSTUDIO2012\VC\ATLMFC\INCLUDE\AFXRIBBONRES.H
E:\VISUALSTUDIO2012\VC\ATLMFC\INCLUDE\AFXBUTTON.H
E:\VISUALSTUDIO2012\VC\ATLMFC\INCLUDE\AFXTOOLBARSLISTCHECKBOX.H
E:\VISUALSTUDIO2012\VC\ATLMFC\INCLUDE\AFXCOLORBAR.H
E:\VISUALSTUDIO2012\VC\ATLMFC\INCLUDE\AFXPOPUPMENUBAR.H
E:\VISUALSTUDIO2012\VC\ATLMFC\INCLUDE\AFXCAPTIONBAR.H
E:\VISUALSTUDIO2012\VC\ATLMFC\INCLUDE\AFXOUTLOOKBARPANE.H
E:\VISUALSTUDIO2012\VC\ATLMFC\INCLUDE\AFXTABBEDPANE.H
E:\VISUALSTUDIO2012\VC\ATLMFC\INCLUDE\AFXTABCTRL.H
E:\VISUALSTUDIO2012\VC\ATLMFC\INCLUDE\AFXTASKSPANE.H
E:\VISUALSTUDIO2012\VC\ATLMFC\INCLUDE\AFXCAPTIONMENUBUTTON.H
E:\VISUALSTUDIO2012\VC\ATLMFC\INCLUDE\AFXTASKSPANEFRAMEWND.H
E:\VISUALSTUDIO2012\VC\ATLMFC\INCLUDE\AFXRIBBONBAR.H
E:\VISUALSTUDIO2012\VC\ATLMFC\INCLUDE\AFXRIBBONBUTTON.H
E:\VISUALSTUDIO2012\VC\ATLMFC\INCLUDE\AFXBASERIBBONELEMENT.H
E:\VISUALSTUDIO2012\VC\ATLMFC\INCLUDE\AFXRIBBONQUICKACCESSTOOLBAR.H
E:\VISUALSTUDIO2012\VC\ATLMFC\INCLUDE\AFXRIBBONBUTTONSGROUP.H
E:\VISUALSTUDIO2012\VC\ATLMFC\INCLUDE\AFXRIBBONCUSTOMIZEDIALOG.H
E:\VISUALSTUDIO2012\VC\ATLMFC\INCLUDE\AFXPROPERTYSHEET.H
E:\VISUALSTUDIO2012\VC\ATLMFC\INCLUDE\AFXDIALOGIMPL.H
E:\VISUALSTUDIO2012\VC\ATLMFC\INCLUDE\AFXPROPERTYPAGE.H
E:\VISUALSTUDIO2012\VC\ATLMFC\INCLUDE\AFXRIBBONCOMMANDSLISTBOX.H
E:\VISUALSTUDIO2012\VC\ATLMFC\INCLUDE\AFXRIBBONKEYBOARDCUSTOMIZEDIALOG.H
E:\VISUALSTUDIO2012\VC\ATLMFC\INCLUDE\AFXDIALOGEX.H
E:\VISUALSTUDIO2012\VC\ATLMFC\INCLUDE\AFXACCELERATORKEYASSIGNCTRL.H
E:\VISUALSTUDIO2012\VC\ATLMFC\INCLUDE\AFXACCELERATORKEY.H
E:\VISUALSTUDIO2012\VC\ATLMFC\INCLUDE\AFXRIBBONPANEL.H
E:\VISUALSTUDIO2012\VC\ATLMFC\INCLUDE\AFXRIBBONMAINPANEL.H
E:\VISUALSTUDIO2012\VC\ATLMFC\INCLUDE\AFXRIBBONPANELMENU.H
E:\VISUALSTUDIO2012\VC\ATLMFC\INCLUDE\AFXPOPUPMENU.H
E:\VISUALSTUDIO2012\VC\ATLMFC\INCLUDE\AFXRIBBONMINITOOLBAR.H
E:\VISUALSTUDIO2012\VC\ATLMFC\INCLUDE\AFXRIBBONCATEGORY.H
E:\VISUALSTUDIO2012\VC\ATLMFC\INCLUDE\AFXRIBBONLABEL.H
E:\VISUALSTUDIO2012\VC\ATLMFC\INCLUDE\AFXRIBBONCOLORBUTTON.H
E:\VISUALSTUDIO2012\VC\ATLMFC\INCLUDE\AFXRIBBONPALETTEGALLERY.H
E:\VISUALSTUDIO2012\VC\ATLMFC\INCLUDE\AFXTOOLBARMENUBUTTON.H
E:\VISUALSTUDIO2012\VC\ATLMFC\INCLUDE\AFXRIBBONEDIT.H
E:\VISUALSTUDIO2012\VC\ATLMFC\INCLUDE\AFXRIBBONCOMBOBOX.H
E:\VISUALSTUDIO2012\VC\ATLMFC\INCLUDE\AFXTOOLBARFONTCOMBOBOX.H
E:\VISUALSTUDIO2012\VC\ATLMFC\INCLUDE\AFXTOOLBARCOMBOBOXBUTTON.H
E:\VISUALSTUDIO2012\VC\ATLMFC\INCLUDE\AFXRIBBONCHECKBOX.H
E:\VISUALSTUDIO2012\VC\ATLMFC\INCLUDE\AFXRIBBONSTATUSBAR.H
E:\VISUALSTUDIO2012\VC\ATLMFC\INCLUDE\AFXRIBBONSTATUSBARPANE.H
E:\VISUALSTUDIO2012\VC\ATLMFC\INCLUDE\AFXRIBBONSLIDER.H
E:\VISUALSTUDIO2012\VC\ATLMFC\INCLUDE\AFXRIBBONPROGRESSBAR.H
E:\VISUALSTUDIO2012\VC\ATLMFC\INCLUDE\AFXRIBBONLINKCTRL.H
E:\VISUALSTUDIO2012\VC\ATLMFC\INCLUDE\AFXRIBBONUNDOBUTTON.H
E:\VISUALSTUDIO2012\VC\ATLMFC\INCLUDE\AFXTOOLBAREDITBOXBUTTON.H
E:\VISUALSTUDIO2012\VC\ATLMFC\INCLUDE\AFXEDITBROWSECTRL.H
E:\VISUALSTUDIO2012\VC\ATLMFC\INCLUDE\AFXTOOLBARSPINEDITBOXBUTTON.H
E:\VISUALSTUDIO2012\VC\ATLMFC\INCLUDE\AFXSPINBUTTONCTRL.H
E:\VISUALSTUDIO2012\VC\ATLMFC\INCLUDE\AFXTOOLBARSYSTEMMENUBUTTON.H
E:\VISUALSTUDIO2012\VC\ATLMFC\INCLUDE\AFXTOOLBARDATETIMECTRL.H
E:\VISUALSTUDIO2012\VC\ATLMFC\INCLUDE\AFXDROPDOWNTOOLBAR.H
E:\VISUALSTUDIO2012\VC\ATLMFC\INCLUDE\AFXCOLORMENUBUTTON.H
E:\VISUALSTUDIO2012\VC\ATLMFC\INCLUDE\AFXOUTLOOKBARPANEBUTTON.H
E:\VISUALSTUDIO2012\VC\ATLMFC\INCLUDE\AFXDROPDOWNLISTBOX.H
E:\VISUALSTUDIO2012\VC\ATLMFC\INCLUDE\AFXAUTOHIDEBUTTON.H
E:\VISUALSTUDIO2012\VC\ATLMFC\INCLUDE\AFXAUTOHIDEBAR.H
E:\VISUALSTUDIO2012\VC\ATLMFC\INCLUDE\AFXFRAMEWNDEX.H
E:\VISUALSTUDIO2012\VC\ATLMFC\INCLUDE\AFXFRAMEIMPL.H
E:\VISUALSTUDIO2012\VC\ATLMFC\INCLUDE\AFXDOCKINGMANAGER.H
E:\VISUALSTUDIO2012\VC\ATLMFC\INCLUDE\AFXSMARTDOCKINGMANAGER.H
E:\VISUALSTUDIO2012\VC\ATLMFC\INCLUDE\AFXSMARTDOCKINGGUIDE.H
E:\VISUALSTUDIO2012\VC\ATLMFC\INCLUDE\AFXSMARTDOCKINGHIGHLIGHTERWND.H
E:\VISUALSTUDIO2012\VC\ATLMFC\INCLUDE\AFXFULLSCREENIMPL.H
E:\VISUALSTUDIO2012\VC\ATLMFC\INCLUDE\AFXMDIFRAMEWNDEX.H
E:\VISUALSTUDIO2012\VC\ATLMFC\INCLUDE\AFXMDICLIENTAREAWND.H
E:\VISUALSTUDIO2012\VC\ATLMFC\INCLUDE\AFXMDICHILDWNDEX.H
E:\VISUALSTUDIO2012\VC\ATLMFC\INCLUDE\AFXOLEIPFRAMEWNDEX.H
E:\VISUALSTUDIO2012\VC\ATLMFC\INCLUDE\AFXOLEDOCIPFRAMEWNDEX.H
E:\VISUALSTUDIO2012\VC\ATLMFC\INCLUDE\AFXDOCOB.H
E:\VISUALSTUDIO2012\VC\ATLMFC\INCLUDE\AFXOLECNTRFRAMEWNDEX.H
E:\VISUALSTUDIO2012\VC\ATLMFC\INCLUDE\AFXPRIV.H
E:\VISUALSTUDIO2012\VC\ATLMFC\INCLUDE\AFXADV.H
E:\VISUALSTUDIO2012\VC\ATLMFC\INCLUDE\AFXCONV.H
E:\VISUALSTUDIO2012\VC\ATLMFC\INCLUDE\AFXPRIV2.H
E:\VISUALSTUDIO2012\VC\ATLMFC\INCLUDE\AFXTOOLBARSCUSTOMIZEDIALOG.H
E:\VISUALSTUDIO2012\VC\ATLMFC\INCLUDE\AFXTOOLBARSLISTPROPERTYPAGE.H
E:\VISUALSTUDIO2012\VC\ATLMFC\INCLUDE\AFXTOOLBARBUTTONSLISTBUTTON.H
E:\VISUALSTUDIO2012\VC\ATLMFC\INCLUDE\AFXTOOLBARSCOMMANDSLISTBOX.H
E:\VISUALSTUDIO2012\VC\ATLMFC\INCLUDE\AFXTOOLBARSTOOLSPROPERTYPAGE.H
E:\VISUALSTUDIO2012\VC\ATLMFC\INCLUDE\AFXVSLISTBOX.H
E:\VISUALSTUDIO2012\VC\ATLMFC\INCLUDE\AFXMENUBUTTON.H
E:\VISUALSTUDIO2012\VC\ATLMFC\INCLUDE\AFXTOOLBARSMENUPROPERTYPAGE.H
E:\VISUALSTUDIO2012\VC\ATLMFC\INCLUDE\AFXMOUSEPROPERTYPAGE.H
E:\VISUALSTUDIO2012\VC\ATLMFC\INCLUDE\AFXTOOLBARSKEYBOARDPROPERTYPAGE.H
E:\VISUALSTUDIO2012\VC\ATLMFC\INCLUDE\AFXTOOLBARSOPTIONSPROPERTYPAGE.H
E:\VISUALSTUDIO2012\VC\ATLMFC\INCLUDE\AFXCUSTOMIZEMENUBUTTON.H
E:\VISUALSTUDIO2012\VC\ATLMFC\INCLUDE\AFXCONTEXTMENUMANAGER.H
E:\VISUALSTUDIO2012\VC\ATLMFC\INCLUDE\AFXKEYBOARDMANAGER.H
E:\VISUALSTUDIO2012\VC\ATLMFC\INCLUDE\AFXMOUSEMANAGER.H
E:\VISUALSTUDIO2012\VC\ATLMFC\INCLUDE\AFXWINAPPEX.H
E:\VISUALSTUDIO2012\VC\ATLMFC\INCLUDE\AFXSETTINGSSTORE.H
E:\VISUALSTUDIO2012\VC\ATLMFC\INCLUDE\AFXREBARSTATE.H
E:\VISUALSTUDIO2012\VC\ATLMFC\INCLUDE\AFXMENUTEAROFFMANAGER.H
E:\VISUALSTUDIO2012\VC\ATLMFC\INCLUDE\AFXDRAWMANAGER.H
E:\VISUALSTUDIO2012\VC\ATLMFC\INCLUDE\AFXDOCKINGPANESROW.H
E:\VISUALSTUDIO2012\VC\ATLMFC\INCLUDE\AFXTOOLTIPMANAGER.H
E:\VISUALSTUDIO2012\VC\ATLMFC\INCLUDE\AFXTOOLTIPCTRL.H
E:\VISUALSTUDIO2012\VC\ATLMFC\INCLUDE\AFXCONTROLRENDERER.H
E:\VISUALSTUDIO2012\VC\ATLMFC\INCLUDE\AFXDOCKABLEPANEADAPTER.H
E:\VISUALSTUDIO2012\VC\ATLMFC\INCLUDE\AFXDOCKSITE.H
E:\VISUALSTUDIO2012\VC\ATLMFC\INCLUDE\AFXCOLORBUTTON.H
E:\VISUALSTUDIO2012\VC\ATLMFC\INCLUDE\AFXLINKCTRL.H
E:\VISUALSTUDIO2012\VC\ATLMFC\INCLUDE\AFXCOLORPICKERCTRL.H
E:\VISUALSTUDIO2012\VC\ATLMFC\INCLUDE\AFXFONTCOMBOBOX.H
E:\VISUALSTUDIO2012\VC\ATLMFC\INCLUDE\AFXREBAR.H
E:\VISUALSTUDIO2012\VC\ATLMFC\INCLUDE\AFXSHELLTREECTRL.H
E:\VISUALSTUDIO2012\VC\ATLMFC\INCLUDE\AFXSHELLMANAGER.H
E:\VISUALSTUDIO2012\VC\ATLMFC\INCLUDE\AFXSHELLLISTCTRL.H
E:\VISUALSTUDIO2012\VC\ATLMFC\INCLUDE\AFXLISTCTRL.H
E:\VISUALSTUDIO2012\VC\ATLMFC\INCLUDE\AFXHEADERCTRL.H
E:\VISUALSTUDIO2012\VC\ATLMFC\INCLUDE\AFXPROPERTYGRIDCTRL.H
E:\VISUALSTUDIO2012\VC\INCLUDE\COMDEF.H
E:\VISUALSTUDIO2012\VC\INCLUDE\COMUTIL.H
E:\VISUALSTUDIO2012\VC\INCLUDE\ASSERT.H
E:\VISUALSTUDIO2012\VC\INCLUDE\COMIP.H
E:\VISUALSTUDIO2012\VC\INCLUDE\COMDEFSP.H
E:\VISUALSTUDIO2012\VC\ATLMFC\INCLUDE\AFXCOLORPOPUPMENU.H
E:\VISUALSTUDIO2012\VC\ATLMFC\INCLUDE\AFXPROPERTYGRIDTOOLTIPCTRL.H
E:\VISUALSTUDIO2012\VC\ATLMFC\INCLUDE\AFXMASKEDEDIT.H
E:\VISUALSTUDIO2012\VC\ATLMFC\INCLUDE\AFXSPLITTERWNDEX.H
E:\VISUALSTUDIO2012\VC\ATLMFC\INCLUDE\AFXDESKTOPALERTWND.H
E:\VISUALSTUDIO2012\VC\ATLMFC\INCLUDE\AFXDESKTOPALERTDIALOG.H
E:\VISUALSTUDIO2012\VC\ATLMFC\INCLUDE\AFXWINDOWSMANAGERDIALOG.H
E:\VISUALSTUDIO2012\VC\ATLMFC\INCLUDE\AFXPREVIEWVIEWEX.H
E:\VISUALSTUDIO2012\VC\ATLMFC\INCLUDE\AFXIMAGEEDITORDIALOG.H
E:\VISUALSTUDIO2012\VC\ATLMFC\INCLUDE\AFXIMAGEPAINTAREA.H
E:\VISUALSTUDIO2012\VC\ATLMFC\INCLUDE\AFXCOLORDIALOG.H
E:\VISUALSTUDIO2012\VC\ATLMFC\INCLUDE\AFXSTANDARDCOLORSPROPERTYPAGE.H
E:\VISUALSTUDIO2012\VC\ATLMFC\INCLUDE\AFXCUSTOMCOLORSPROPERTYPAGE.H
E:\VISUALSTUDIO2012\VC\ATLMFC\INCLUDE\AFXKEYMAPDIALOG.H
E:\VISUALSTUDIO2012\VC\ATLMFC\INCLUDE\AFXTABVIEW.H
E:\VISUALSTUDIO2012\VC\ATLMFC\INCLUDE\AFXVISUALMANAGEROFFICEXP.H
E:\VISUALSTUDIO2012\VC\ATLMFC\INCLUDE\AFXVISUALMANAGERWINDOWS.H
E:\VISUALSTUDIO2012\VC\ATLMFC\INCLUDE\AFXVISUALMANAGEROFFICE2003.H
E:\VISUALSTUDIO2012\VC\ATLMFC\INCLUDE\AFXVISUALMANAGERVS2005.H
E:\VISUALSTUDIO2012\VC\ATLMFC\INCLUDE\AFXVISUALMANAGERVS2008.H
E:\VISUALSTUDIO2012\VC\ATLMFC\INCLUDE\AFXVISUALMANAGEROFFICE2007.H
E:\VISUALSTUDIO2012\VC\ATLMFC\INCLUDE\AFXVISUALMANAGERWINDOWS7.H
E:\VISUALSTUDIO2012\VC\ATLMFC\INCLUDE\AFXOLESERVERDOCEX.H
E:\VISUALSTUDIO2012\VC\ATLMFC\INCLUDE\AFXGLOBALUTILS.H
^F:\学习\程序\软件工程\扇贝刷题\扇贝刷题\扇贝刷题DLG.CPP
F:\学习\程序\软件工程\扇贝刷题\扇贝刷题\DEBUG\扇贝刷题.PCH
F:\学习\程序\软件工程\扇贝刷题\扇贝刷题\扇贝刷题.H
F:\学习\程序\软件工程\扇贝刷题\扇贝刷题\RESOURCE.H
F:\学习\程序\软件工程\扇贝刷题\扇贝刷题\扇贝刷题DLG.H
E:\VISUALSTUDIO2012\VC\ATLMFC\INCLUDE\AFXWIN.H
E:\VISUALSTUDIO2012\VC\INCLUDE\IOSTREAM
E:\VISUALSTUDIO2012\VC\INCLUDE\ISTREAM
E:\VISUALSTUDIO2012\VC\INCLUDE\OSTREAM
E:\VISUALSTUDIO2012\VC\INCLUDE\IOS
E:\VISUALSTUDIO2012\VC\INCLUDE\XLOCNUM
E:\VISUALSTUDIO2012\VC\INCLUDE\CLIMITS
E:\VISUALSTUDIO2012\VC\INCLUDE\YVALS.H
E:\VISUALSTUDIO2012\VC\INCLUDE\XKEYCHECK.H
E:\VISUALSTUDIO2012\VC\INCLUDE\CRTDEFS.H
E:\VISUALSTUDIO2012\VC\INCLUDE\USE_ANSI.H
E:\VISUALSTUDIO2012\VC\INCLUDE\CMATH
E:\VISUALSTUDIO2012\VC\INCLUDE\MATH.H
E:\VISUALSTUDIO2012\VC\INCLUDE\XTGMATH.H
E:\VISUALSTUDIO2012\VC\INCLUDE\XTR1COMMON
E:\VISUALSTUDIO2012\VC\INCLUDE\CSTDIO
E:\VISUALSTUDIO2012\VC\INCLUDE\CSTDLIB
E:\VISUALSTUDIO2012\VC\INCLUDE\STREAMBUF
E:\VISUALSTUDIO2012\VC\INCLUDE\XIOSBASE
E:\VISUALSTUDIO2012\VC\INCLUDE\XLOCALE
E:\VISUALSTUDIO2012\VC\INCLUDE\CSTRING
E:\VISUALSTUDIO2012\VC\INCLUDE\STDEXCEPT
E:\VISUALSTUDIO2012\VC\INCLUDE\EXCEPTION
E:\VISUALSTUDIO2012\VC\INCLUDE\XSTDDEF
E:\VISUALSTUDIO2012\VC\INCLUDE\CSTDDEF
E:\VISUALSTUDIO2012\VC\INCLUDE\EH.H
E:\VISUALSTUDIO2012\VC\INCLUDE\XSTRING
E:\VISUALSTUDIO2012\VC\INCLUDE\XMEMORY0
E:\VISUALSTUDIO2012\VC\INCLUDE\LIMITS
E:\VISUALSTUDIO2012\VC\INCLUDE\YMATH.H
E:\VISUALSTUDIO2012\VC\INCLUDE\CFLOAT
E:\VISUALSTUDIO2012\VC\INCLUDE\FLOAT.H
E:\VISUALSTUDIO2012\VC\INCLUDE\CRTWRN.H
E:\VISUALSTUDIO2012\VC\INCLUDE\CWCHAR
E:\VISUALSTUDIO2012\VC\INCLUDE\NEW
E:\VISUALSTUDIO2012\VC\INCLUDE\XUTILITY
E:\VISUALSTUDIO2012\VC\INCLUDE\UTILITY
E:\VISUALSTUDIO2012\VC\INCLUDE\IOSFWD
E:\VISUALSTUDIO2012\VC\INCLUDE\TYPE_TRAITS
E:\VISUALSTUDIO2012\VC\INCLUDE\XREFWRAP
E:\VISUALSTUDIO2012\VC\INCLUDE\XATOMIC0.H
E:\VISUALSTUDIO2012\VC\INCLUDE\INTRIN.H
E:\VISUALSTUDIO2012\VC\INCLUDE\SETJMP.H
E:\VISUALSTUDIO2012\VC\INCLUDE\IMMINTRIN.H
E:\VISUALSTUDIO2012\VC\INCLUDE\WMMINTRIN.H
E:\VISUALSTUDIO2012\VC\INCLUDE\NMMINTRIN.H
E:\VISUALSTUDIO2012\VC\INCLUDE\SMMINTRIN.H
E:\VISUALSTUDIO2012\VC\INCLUDE\TMMINTRIN.H
E:\VISUALSTUDIO2012\VC\INCLUDE\PMMINTRIN.H
E:\VISUALSTUDIO2012\VC\INCLUDE\EMMINTRIN.H
E:\VISUALSTUDIO2012\VC\INCLUDE\XMMINTRIN.H
E:\VISUALSTUDIO2012\VC\INCLUDE\MMINTRIN.H
E:\VISUALSTUDIO2012\VC\INCLUDE\AMMINTRIN.H
E:\VISUALSTUDIO2012\VC\INCLUDE\MM3DNOW.H
E:\VISUALSTUDIO2012\VC\INCLUDE\TYPEINFO
E:\VISUALSTUDIO2012\VC\INCLUDE\XLOCINFO
E:\VISUALSTUDIO2012\VC\INCLUDE\XLOCINFO.H
E:\VISUALSTUDIO2012\VC\INCLUDE\LOCALE.H
E:\VISUALSTUDIO2012\VC\INCLUDE\XDEBUG
E:\VISUALSTUDIO2012\VC\INCLUDE\XMEMORY
E:\VISUALSTUDIO2012\VC\INCLUDE\XFACET
E:\VISUALSTUDIO2012\VC\INCLUDE\SYSTEM_ERROR
E:\VISUALSTUDIO2012\VC\INCLUDE\CERRNO
E:\VISUALSTUDIO2012\VC\INCLUDE\SHARE.H
E:\VISUALSTUDIO2012\VC\INCLUDE\FSTREAM
E:\VISUALSTUDIO2012\VC\INCLUDE\STRING
E:\VISUALSTUDIO2012\VC\INCLUDE\ITERATOR
F:\学习\程序\软件工程\扇贝刷题\扇贝刷题\RANDOMPROBABILITY.H
E:\VISUALSTUDIO2012\VC\INCLUDE\CTIME
F:\学习\程序\软件工程\扇贝刷题\扇贝刷题\QUESTION.H
^F:\学习\程序\软件工程\扇贝刷题\扇贝刷题\扇贝刷题.CPP
F:\学习\程序\软件工程\扇贝刷题\扇贝刷题\DEBUG\扇贝刷题.PCH
F:\学习\程序\软件工程\扇贝刷题\扇贝刷题\扇贝刷题.H
F:\学习\程序\软件工程\扇贝刷题\扇贝刷题\RESOURCE.H
F:\学习\程序\软件工程\扇贝刷题\扇贝刷题\扇贝刷题DLG.H
E:\VISUALSTUDIO2012\VC\ATLMFC\INCLUDE\AFXWIN.H
E:\VISUALSTUDIO2012\VC\INCLUDE\IOSTREAM
E:\VISUALSTUDIO2012\VC\INCLUDE\ISTREAM
E:\VISUALSTUDIO2012\VC\INCLUDE\OSTREAM
E:\VISUALSTUDIO2012\VC\INCLUDE\IOS
E:\VISUALSTUDIO2012\VC\INCLUDE\XLOCNUM
E:\VISUALSTUDIO2012\VC\INCLUDE\CLIMITS
E:\VISUALSTUDIO2012\VC\INCLUDE\YVALS.H
E:\VISUALSTUDIO2012\VC\INCLUDE\XKEYCHECK.H
E:\VISUALSTUDIO2012\VC\INCLUDE\CRTDEFS.H
E:\VISUALSTUDIO2012\VC\INCLUDE\USE_ANSI.H
E:\VISUALSTUDIO2012\VC\INCLUDE\CMATH
E:\VISUALSTUDIO2012\VC\INCLUDE\MATH.H
E:\VISUALSTUDIO2012\VC\INCLUDE\XTGMATH.H
E:\VISUALSTUDIO2012\VC\INCLUDE\XTR1COMMON
E:\VISUALSTUDIO2012\VC\INCLUDE\CSTDIO
E:\VISUALSTUDIO2012\VC\INCLUDE\CSTDLIB
E:\VISUALSTUDIO2012\VC\INCLUDE\STREAMBUF
E:\VISUALSTUDIO2012\VC\INCLUDE\XIOSBASE
E:\VISUALSTUDIO2012\VC\INCLUDE\XLOCALE
E:\VISUALSTUDIO2012\VC\INCLUDE\CSTRING
E:\VISUALSTUDIO2012\VC\INCLUDE\STDEXCEPT
E:\VISUALSTUDIO2012\VC\INCLUDE\EXCEPTION
E:\VISUALSTUDIO2012\VC\INCLUDE\XSTDDEF
E:\VISUALSTUDIO2012\VC\INCLUDE\CSTDDEF
E:\VISUALSTUDIO2012\VC\INCLUDE\EH.H
E:\VISUALSTUDIO2012\VC\INCLUDE\XSTRING
E:\VISUALSTUDIO2012\VC\INCLUDE\XMEMORY0
E:\VISUALSTUDIO2012\VC\INCLUDE\LIMITS
E:\VISUALSTUDIO2012\VC\INCLUDE\YMATH.H
E:\VISUALSTUDIO2012\VC\INCLUDE\CFLOAT
E:\VISUALSTUDIO2012\VC\INCLUDE\FLOAT.H
E:\VISUALSTUDIO2012\VC\INCLUDE\CRTWRN.H
E:\VISUALSTUDIO2012\VC\INCLUDE\CWCHAR
E:\VISUALSTUDIO2012\VC\INCLUDE\NEW
E:\VISUALSTUDIO2012\VC\INCLUDE\XUTILITY
E:\VISUALSTUDIO2012\VC\INCLUDE\UTILITY
E:\VISUALSTUDIO2012\VC\INCLUDE\IOSFWD
E:\VISUALSTUDIO2012\VC\INCLUDE\TYPE_TRAITS
E:\VISUALSTUDIO2012\VC\INCLUDE\XREFWRAP
E:\VISUALSTUDIO2012\VC\INCLUDE\XATOMIC0.H
E:\VISUALSTUDIO2012\VC\INCLUDE\INTRIN.H
E:\VISUALSTUDIO2012\VC\INCLUDE\SETJMP.H
E:\VISUALSTUDIO2012\VC\INCLUDE\IMMINTRIN.H
E:\VISUALSTUDIO2012\VC\INCLUDE\WMMINTRIN.H
E:\VISUALSTUDIO2012\VC\INCLUDE\NMMINTRIN.H
E:\VISUALSTUDIO2012\VC\INCLUDE\SMMINTRIN.H
E:\VISUALSTUDIO2012\VC\INCLUDE\TMMINTRIN.H
E:\VISUALSTUDIO2012\VC\INCLUDE\PMMINTRIN.H
E:\VISUALSTUDIO2012\VC\INCLUDE\EMMINTRIN.H
E:\VISUALSTUDIO2012\VC\INCLUDE\XMMINTRIN.H
E:\VISUALSTUDIO2012\VC\INCLUDE\MMINTRIN.H
E:\VISUALSTUDIO2012\VC\INCLUDE\AMMINTRIN.H
E:\VISUALSTUDIO2012\VC\INCLUDE\MM3DNOW.H
E:\VISUALSTUDIO2012\VC\INCLUDE\TYPEINFO
E:\VISUALSTUDIO2012\VC\INCLUDE\XLOCINFO
E:\VISUALSTUDIO2012\VC\INCLUDE\XLOCINFO.H
E:\VISUALSTUDIO2012\VC\INCLUDE\LOCALE.H
E:\VISUALSTUDIO2012\VC\INCLUDE\XDEBUG
E:\VISUALSTUDIO2012\VC\INCLUDE\XMEMORY
E:\VISUALSTUDIO2012\VC\INCLUDE\XFACET
E:\VISUALSTUDIO2012\VC\INCLUDE\SYSTEM_ERROR
E:\VISUALSTUDIO2012\VC\INCLUDE\CERRNO
E:\VISUALSTUDIO2012\VC\INCLUDE\SHARE.H
E:\VISUALSTUDIO2012\VC\INCLUDE\FSTREAM
E:\VISUALSTUDIO2012\VC\INCLUDE\STRING
E:\VISUALSTUDIO2012\VC\INCLUDE\ITERATOR
F:\学习\程序\软件工程\扇贝刷题\扇贝刷题\RANDOMPROBABILITY.H
E:\VISUALSTUDIO2012\VC\INCLUDE\CTIME
F:\学习\程序\软件工程\扇贝刷题\扇贝刷题\QUESTION.H
^F:\学习\程序\软件工程\扇贝刷题\扇贝刷题\RANDOMPROBABILITY.CPP
F:\学习\程序\软件工程\扇贝刷题\扇贝刷题\DEBUG\扇贝刷题.PCH
F:\学习\程序\软件工程\扇贝刷题\扇贝刷题\RANDOMPROBABILITY.H
E:\VISUALSTUDIO2012\VC\INCLUDE\IOSTREAM
E:\VISUALSTUDIO2012\VC\INCLUDE\ISTREAM
E:\VISUALSTUDIO2012\VC\INCLUDE\OSTREAM
E:\VISUALSTUDIO2012\VC\INCLUDE\IOS
E:\VISUALSTUDIO2012\VC\INCLUDE\XLOCNUM
E:\VISUALSTUDIO2012\VC\INCLUDE\CLIMITS
E:\VISUALSTUDIO2012\VC\INCLUDE\YVALS.H
E:\VISUALSTUDIO2012\VC\INCLUDE\XKEYCHECK.H
E:\VISUALSTUDIO2012\VC\INCLUDE\CRTDEFS.H
E:\VISUALSTUDIO2012\VC\INCLUDE\USE_ANSI.H
E:\VISUALSTUDIO2012\VC\INCLUDE\CMATH
E:\VISUALSTUDIO2012\VC\INCLUDE\MATH.H
E:\VISUALSTUDIO2012\VC\INCLUDE\XTGMATH.H
E:\VISUALSTUDIO2012\VC\INCLUDE\XTR1COMMON
E:\VISUALSTUDIO2012\VC\INCLUDE\CSTDIO
E:\VISUALSTUDIO2012\VC\INCLUDE\CSTDLIB
E:\VISUALSTUDIO2012\VC\INCLUDE\STREAMBUF
E:\VISUALSTUDIO2012\VC\INCLUDE\XIOSBASE
E:\VISUALSTUDIO2012\VC\INCLUDE\XLOCALE
E:\VISUALSTUDIO2012\VC\INCLUDE\CSTRING
E:\VISUALSTUDIO2012\VC\INCLUDE\STDEXCEPT
E:\VISUALSTUDIO2012\VC\INCLUDE\EXCEPTION
E:\VISUALSTUDIO2012\VC\INCLUDE\XSTDDEF
E:\VISUALSTUDIO2012\VC\INCLUDE\CSTDDEF
E:\VISUALSTUDIO2012\VC\INCLUDE\EH.H
E:\VISUALSTUDIO2012\VC\INCLUDE\XSTRING
E:\VISUALSTUDIO2012\VC\INCLUDE\XMEMORY0
E:\VISUALSTUDIO2012\VC\INCLUDE\LIMITS
E:\VISUALSTUDIO2012\VC\INCLUDE\YMATH.H
E:\VISUALSTUDIO2012\VC\INCLUDE\CFLOAT
E:\VISUALSTUDIO2012\VC\INCLUDE\FLOAT.H
E:\VISUALSTUDIO2012\VC\INCLUDE\CRTWRN.H
E:\VISUALSTUDIO2012\VC\INCLUDE\CWCHAR
E:\VISUALSTUDIO2012\VC\INCLUDE\NEW
E:\VISUALSTUDIO2012\VC\INCLUDE\XUTILITY
E:\VISUALSTUDIO2012\VC\INCLUDE\UTILITY
E:\VISUALSTUDIO2012\VC\INCLUDE\IOSFWD
E:\VISUALSTUDIO2012\VC\INCLUDE\TYPE_TRAITS
E:\VISUALSTUDIO2012\VC\INCLUDE\XREFWRAP
E:\VISUALSTUDIO2012\VC\INCLUDE\XATOMIC0.H
E:\VISUALSTUDIO2012\VC\INCLUDE\INTRIN.H
E:\VISUALSTUDIO2012\VC\INCLUDE\SETJMP.H
E:\VISUALSTUDIO2012\VC\INCLUDE\IMMINTRIN.H
E:\VISUALSTUDIO2012\VC\INCLUDE\WMMINTRIN.H
E:\VISUALSTUDIO2012\VC\INCLUDE\NMMINTRIN.H
E:\VISUALSTUDIO2012\VC\INCLUDE\SMMINTRIN.H
E:\VISUALSTUDIO2012\VC\INCLUDE\TMMINTRIN.H
E:\VISUALSTUDIO2012\VC\INCLUDE\PMMINTRIN.H
E:\VISUALSTUDIO2012\VC\INCLUDE\EMMINTRIN.H
E:\VISUALSTUDIO2012\VC\INCLUDE\XMMINTRIN.H
E:\VISUALSTUDIO2012\VC\INCLUDE\MMINTRIN.H
E:\VISUALSTUDIO2012\VC\INCLUDE\AMMINTRIN.H
E:\VISUALSTUDIO2012\VC\INCLUDE\MM3DNOW.H
E:\VISUALSTUDIO2012\VC\INCLUDE\TYPEINFO
E:\VISUALSTUDIO2012\VC\INCLUDE\XLOCINFO
E:\VISUALSTUDIO2012\VC\INCLUDE\XLOCINFO.H
E:\VISUALSTUDIO2012\VC\INCLUDE\LOCALE.H
E:\VISUALSTUDIO2012\VC\INCLUDE\XDEBUG
E:\VISUALSTUDIO2012\VC\INCLUDE\XMEMORY
E:\VISUALSTUDIO2012\VC\INCLUDE\XFACET
E:\VISUALSTUDIO2012\VC\INCLUDE\SYSTEM_ERROR
E:\VISUALSTUDIO2012\VC\INCLUDE\CERRNO
E:\VISUALSTUDIO2012\VC\INCLUDE\SHARE.H
E:\VISUALSTUDIO2012\VC\INCLUDE\FSTREAM
E:\VISUALSTUDIO2012\VC\INCLUDE\STRING
E:\VISUALSTUDIO2012\VC\INCLUDE\ITERATOR
E:\VISUALSTUDIO2012\VC\INCLUDE\CTIME
E:\VISUALSTUDIO2012\VC\ATLMFC\INCLUDE\AFXWIN.H
^F:\学习\程序\软件工程\扇贝刷题\扇贝刷题\QUESTION.CPP
F:\学习\程序\软件工程\扇贝刷题\扇贝刷题\DEBUG\扇贝刷题.PCH
F:\学习\程序\软件工程\扇贝刷题\扇贝刷题\QUESTION.H
E:\VISUALSTUDIO2012\VC\ATLMFC\INCLUDE\AFXWIN.H
E:\VISUALSTUDIO2012\VC\INCLUDE\IOSTREAM
E:\VISUALSTUDIO2012\VC\INCLUDE\ISTREAM
E:\VISUALSTUDIO2012\VC\INCLUDE\OSTREAM
E:\VISUALSTUDIO2012\VC\INCLUDE\IOS
E:\VISUALSTUDIO2012\VC\INCLUDE\XLOCNUM
E:\VISUALSTUDIO2012\VC\INCLUDE\CLIMITS
E:\VISUALSTUDIO2012\VC\INCLUDE\YVALS.H
E:\VISUALSTUDIO2012\VC\INCLUDE\XKEYCHECK.H
E:\VISUALSTUDIO2012\VC\INCLUDE\CRTDEFS.H
E:\VISUALSTUDIO2012\VC\INCLUDE\USE_ANSI.H
E:\VISUALSTUDIO2012\VC\INCLUDE\CMATH
E:\VISUALSTUDIO2012\VC\INCLUDE\MATH.H
E:\VISUALSTUDIO2012\VC\INCLUDE\XTGMATH.H
E:\VISUALSTUDIO2012\VC\INCLUDE\XTR1COMMON
E:\VISUALSTUDIO2012\VC\INCLUDE\CSTDIO
E:\VISUALSTUDIO2012\VC\INCLUDE\CSTDLIB
E:\VISUALSTUDIO2012\VC\INCLUDE\STREAMBUF
E:\VISUALSTUDIO2012\VC\INCLUDE\XIOSBASE
E:\VISUALSTUDIO2012\VC\INCLUDE\XLOCALE
E:\VISUALSTUDIO2012\VC\INCLUDE\CSTRING
E:\VISUALSTUDIO2012\VC\INCLUDE\STDEXCEPT
E:\VISUALSTUDIO2012\VC\INCLUDE\EXCEPTION
E:\VISUALSTUDIO2012\VC\INCLUDE\XSTDDEF
E:\VISUALSTUDIO2012\VC\INCLUDE\CSTDDEF
E:\VISUALSTUDIO2012\VC\INCLUDE\EH.H
E:\VISUALSTUDIO2012\VC\INCLUDE\XSTRING
E:\VISUALSTUDIO2012\VC\INCLUDE\XMEMORY0
E:\VISUALSTUDIO2012\VC\INCLUDE\LIMITS
E:\VISUALSTUDIO2012\VC\INCLUDE\YMATH.H
E:\VISUALSTUDIO2012\VC\INCLUDE\CFLOAT
E:\VISUALSTUDIO2012\VC\INCLUDE\FLOAT.H
E:\VISUALSTUDIO2012\VC\INCLUDE\CRTWRN.H
E:\VISUALSTUDIO2012\VC\INCLUDE\CWCHAR
E:\VISUALSTUDIO2012\VC\INCLUDE\NEW
E:\VISUALSTUDIO2012\VC\INCLUDE\XUTILITY
E:\VISUALSTUDIO2012\VC\INCLUDE\UTILITY
E:\VISUALSTUDIO2012\VC\INCLUDE\IOSFWD
E:\VISUALSTUDIO2012\VC\INCLUDE\TYPE_TRAITS
E:\VISUALSTUDIO2012\VC\INCLUDE\XREFWRAP
E:\VISUALSTUDIO2012\VC\INCLUDE\XATOMIC0.H
E:\VISUALSTUDIO2012\VC\INCLUDE\INTRIN.H
E:\VISUALSTUDIO2012\VC\INCLUDE\SETJMP.H
E:\VISUALSTUDIO2012\VC\INCLUDE\IMMINTRIN.H
E:\VISUALSTUDIO2012\VC\INCLUDE\WMMINTRIN.H
E:\VISUALSTUDIO2012\VC\INCLUDE\NMMINTRIN.H
E:\VISUALSTUDIO2012\VC\INCLUDE\SMMINTRIN.H
E:\VISUALSTUDIO2012\VC\INCLUDE\TMMINTRIN.H
E:\VISUALSTUDIO2012\VC\INCLUDE\PMMINTRIN.H
E:\VISUALSTUDIO2012\VC\INCLUDE\EMMINTRIN.H
E:\VISUALSTUDIO2012\VC\INCLUDE\XMMINTRIN.H
E:\VISUALSTUDIO2012\VC\INCLUDE\MMINTRIN.H
E:\VISUALSTUDIO2012\VC\INCLUDE\AMMINTRIN.H
E:\VISUALSTUDIO2012\VC\INCLUDE\MM3DNOW.H
E:\VISUALSTUDIO2012\VC\INCLUDE\TYPEINFO
E:\VISUALSTUDIO2012\VC\INCLUDE\XLOCINFO
E:\VISUALSTUDIO2012\VC\INCLUDE\XLOCINFO.H
E:\VISUALSTUDIO2012\VC\INCLUDE\LOCALE.H
E:\VISUALSTUDIO2012\VC\INCLUDE\XDEBUG
E:\VISUALSTUDIO2012\VC\INCLUDE\XMEMORY
E:\VISUALSTUDIO2012\VC\INCLUDE\XFACET
E:\VISUALSTUDIO2012\VC\INCLUDE\SYSTEM_ERROR
E:\VISUALSTUDIO2012\VC\INCLUDE\CERRNO
E:\VISUALSTUDIO2012\VC\INCLUDE\SHARE.H
E:\VISUALSTUDIO2012\VC\INCLUDE\FSTREAM
E:\VISUALSTUDIO2012\VC\INCLUDE\STRING
E:\VISUALSTUDIO2012\VC\INCLUDE\ITERATOR
E:\VISUALSTUDIO2012\VC\INCLUDE\CTIME
